{
    "cinemas": [
        {
            "id": 26195,
            "mark": 0,
            "nm": "大地院线影城（珠江摩尔店）",
            "sellPrice": "33",
            "addr": "昌平区回龙观镇北清路1号院7号楼内7-101-26",
            "distance": "3.9km",
            "tag": {
                "allowRefund": 1,
                "buyout": 0,
                "cityCardTag": 0,
                "deal": 0,
                "endorse": 1,
                "hallTypeVOList": [],
                "sell": 1,
                "snack": 1,
                "vipTag": "折扣卡"
            },
            "promotion": {
                "cardPromotionTag": "开卡特惠，首单2张最高立减6元"
            },
            "showTimes": "10:10 | 10:30 | 11:40"
        },
        {
            "id": 107,
            "mark": 0,
            "nm": "中影国际影城（昌平永旺店）",
            "sellPrice": "39.9",
            "addr": "昌平区北清路1号永旺国际商城3楼",
            "distance": "4km",
            "tag": {
                "allowRefund": 0,
                "buyout": 0,
                "cityCardTag": 0,
                "deal": 0,
                "endorse": 0,
                "hallType": [
                    "DTS:X 临境音厅",
                    "60帧厅",
                    "CINITY厅"
                ],
                "hallTypeVOList": [
                    {
                        "name": "DTS:X 临境音厅",
                        "url": ""
                    },
                    {
                        "name": "60帧厅",
                        "url": ""
                    },
                    {
                        "name": "CINITY厅",
                        "url": ""
                    }
                ],
                "sell": 1,
                "snack": 1,
                "vipTag": "折扣卡"
            },
            "promotion": {
                "cardPromotionTag": "开卡特惠，首单2张最高立减4元"
            },
            "showTimes": "11:45 | 14:10 | 16:35"
        },
        {
            "id": 27624,
            "mark": 0,
            "nm": "沙河镇中影智信影城",
            "sellPrice": "38",
            "addr": "昌平区奇点中心（北京市昌平区能源东路1号）",
            "distance": "4.7km",
            "tag": {
                "allowRefund": 0,
                "buyout": 0,
                "cityCardTag": 0,
                "deal": 0,
                "endorse": 1,
                "hallTypeVOList": [],
                "sell": 1,
                "snack": 0
            },
            "promotion": {},
            "showTimes": "10:30 | 12:40 | 14:50"
        },
        {
            "id": 25346,
            "mark": 0,
            "nm": "华联影院（回龙观店）",
            "sellPrice": "28.9",
            "addr": "昌平区回龙观镇西大街111号三层F3-90",
            "distance": "7.4km",
            "tag": {
                "allowRefund": 0,
                "buyout": 0,
                "cityCardTag": 0,
                "deal": 0,
                "endorse": 1,
                "hallTypeVOList": [],
                "sell": 1,
                "snack": 1,
                "vipTag": "折扣卡"
            },
            "promotion": {
                "cardPromotionTag": "开卡特惠，首单2张最高立减6元"
            },
            "showTimes": "12:40 | 14:55 | 21:00"
        },
        {
            "id": 25814,
            "mark": 0,
            "nm": "莱纳龙域影城",
            "sellPrice": "49.9",
            "addr": "昌平区龙域中街1号院1号楼昌发展万科广场5层",
            "distance": "7.9km",
            "tag": {
                "allowRefund": 1,
                "buyout": 0,
                "cityCardTag": 0,
                "deal": 0,
                "endorse": 1,
                "hallType": [
                    "杜比全景声厅",
                    "DTS:X 临境音厅",
                    "4K厅"
                ],
                "hallTypeVOList": [
                    {
                        "name": "杜比全景声厅",
                        "url": ""
                    },
                    {
                        "name": "DTS:X 临境音厅",
                        "url": ""
                    },
                    {
                        "name": "4K厅",
                        "url": ""
                    }
                ],
                "sell": 1,
                "snack": 1,
                "vipTag": "折扣卡"
            },
            "promotion": {
                "cardPromotionTag": "开卡特惠，首单2张最高立减6元"
            },
            "showTimes": "11:10 | 13:30 | 15:50"
        },
        {
            "id": 9647,
            "mark": 0,
            "nm": "沃美影城（回龙观店）",
            "sellPrice": "39",
            "addr": "昌平区回龙观同成街华联购物中心四楼（城铁回龙观站出口对面）",
            "distance": "9km",
            "tag": {
                "allowRefund": 0,
                "buyout": 0,
                "cityCardTag": 0,
                "deal": 0,
                "endorse": 0,
                "hallType": [
                    "杜比全景声厅"
                ],
                "hallTypeVOList": [
                    {
                        "name": "杜比全景声厅",
                        "url": ""
                    }
                ],
                "sell": 1,
                "snack": 1,
                "vipTag": "折扣卡"
            },
            "promotion": {
                "cardPromotionTag": "开卡特惠，首单2张最高立减4元"
            },
            "showTimes": "10:00 | 12:20 | 14:40"
        },
        {
            "id": 16285,
            "mark": 0,
            "nm": "耀莱成龙影城（温泉镇店）",
            "sellPrice": "51",
            "addr": "海淀区温泉镇北部文化中心D座",
            "distance": "9.2km",
            "tag": {
                "allowRefund": 0,
                "buyout": 0,
                "cityCardTag": 0,
                "deal": 0,
                "endorse": 1,
                "hallType": [
                    "杜比全景声厅",
                    "60帧厅"
                ],
                "hallTypeVOList": [
                    {
                        "name": "杜比全景声厅",
                        "url": ""
                    },
                    {
                        "name": "60帧厅",
                        "url": ""
                    }
                ],
                "sell": 1,
                "snack": 1,
                "vipTag": "折扣卡"
            },
            "promotion": {
                "cardPromotionTag": "开卡特惠，首单1张最高立减6元"
            },
            "showTimes": "09:35 | 12:45 | 14:05"
        },
        {
            "id": 5502,
            "mark": 0,
            "nm": "保利国际影城（龙旗广场店）",
            "sellPrice": "38.9",
            "addr": "昌平区黄平路19号院3号楼龙旗广场购物中心3层（地铁8号线育新站路北600米，近永辉超市）",
            "distance": "10km",
            "tag": {
                "allowRefund": 0,
                "buyout": 0,
                "cityCardTag": 0,
                "deal": 0,
                "endorse": 0,
                "hallType": [
                    "4K厅"
                ],
                "hallTypeVOList": [
                    {
                        "name": "4K厅",
                        "url": ""
                    }
                ],
                "sell": 1,
                "snack": 1,
                "vipTag": "折扣卡"
            },
            "promotion": {
                "cardPromotionTag": "开卡特惠，首单2张最高立减6元"
            },
            "showTimes": "10:05 | 11:15 | 13:35"
        },
        {
            "id": 7433,
            "mark": 0,
            "nm": "大地影院（西三旗物美店）",
            "sellPrice": "37.9",
            "addr": "海淀区悦秀路99号二层",
            "distance": "10.6km",
            "tag": {
                "allowRefund": 0,
                "buyout": 0,
                "cityCardTag": 0,
                "deal": 0,
                "endorse": 1,
                "hallTypeVOList": [],
                "sell": 1,
                "snack": 1,
                "vipTag": "折扣卡"
            },
            "promotion": {
                "cardPromotionTag": "开卡特惠，首单1张最高立减10元"
            },
            "showTimes": "15:10 | 17:25 | 19:40"
        },
        {
            "id": 25016,
            "mark": 0,
            "nm": "中影星美国际影城（温都水城店）",
            "sellPrice": "43",
            "addr": "昌平区北七家镇温都水城广场4-5层",
            "distance": "10.7km",
            "tag": {
                "allowRefund": 0,
                "buyout": 0,
                "cityCardTag": 0,
                "deal": 0,
                "endorse": 1,
                "hallTypeVOList": [],
                "sell": 1,
                "snack": 1,
                "vipTag": "折扣卡"
            },
            "promotion": {
                "cardPromotionTag": "开卡特惠，首单2张最高立减6元"
            },
            "showTimes": "09:50 | 11:00 | 13:20"
        },
        {
            "id": 27962,
            "mark": 0,
            "nm": "华联影城（上地店）",
            "sellPrice": "28",
            "addr": "海淀区上地南口华联商厦4F（近上地南口）",
            "distance": "10.9km",
            "tag": {
                "allowRefund": 0,
                "buyout": 0,
                "cityCardTag": 0,
                "deal": 0,
                "endorse": 0,
                "hallTypeVOList": [],
                "sell": 1,
                "snack": 1,
                "vipTag": "折扣卡"
            },
            "promotion": {},
            "showTimes": "17:10 | 19:30 | 21:50"
        },
        {
            "id": 25172,
            "mark": 0,
            "nm": "华联影城（肖家河店）",
            "sellPrice": "30.9",
            "addr": "海淀区龙背村路99号院北京华联龙背购物中心",
            "distance": "11km",
            "tag": {
                "allowRefund": 0,
                "buyout": 0,
                "cityCardTag": 0,
                "deal": 0,
                "endorse": 1,
                "hallTypeVOList": [],
                "sell": 1,
                "snack": 1,
                "vipTag": "折扣卡"
            },
            "promotion": {
                "cardPromotionTag": "开卡特惠，首单2张最高立减6元"
            },
            "showTimes": "08:50 | 11:05 | 13:20"
        },
        {
            "id": 8186,
            "mark": 0,
            "nm": "首都电影院（悦荟万科广场店）",
            "sellPrice": "39",
            "addr": "昌平区南环路10号院1号楼悦荟万科广场8层",
            "distance": "11.1km",
            "tag": {
                "allowRefund": 0,
                "buyout": 0,
                "cityCardTag": 0,
                "deal": 0,
                "endorse": 0,
                "hallType": [
                    "杜比全景声厅"
                ],
                "hallTypeVOList": [
                    {
                        "name": "杜比全景声厅",
                        "url": ""
                    }
                ],
                "sell": 1,
                "snack": 1,
                "vipTag": "折扣卡"
            },
            "promotion": {
                "cardPromotionTag": "开卡特惠，首单2张最高立减4元"
            },
            "showTimes": "10:10 | 11:00 | 11:40"
        },
        {
            "id": 25045,
            "mark": 0,
            "nm": "东融国际影城（西小口店）",
            "sellPrice": "38",
            "addr": "海淀区文龙家园四里4号楼4F-08",
            "distance": "11.7km",
            "tag": {
                "allowRefund": 0,
                "buyout": 0,
                "cityCardTag": 0,
                "deal": 0,
                "endorse": 0,
                "hallType": [
                    "4D厅"
                ],
                "hallTypeVOList": [
                    {
                        "name": "4D厅",
                        "url": ""
                    }
                ],
                "sell": 1,
                "snack": 1
            },
            "promotion": {},
            "showTimes": "09:35 | 10:25 | 12:00"
        },
        {
            "id": 58,
            "mark": 0,
            "nm": "金逸影城（新都店）",
            "sellPrice": "35",
            "addr": "海淀区西三旗建材城中路6号新都购物广场1层",
            "distance": "11.8km",
            "tag": {
                "allowRefund": 0,
                "buyout": 0,
                "cityCardTag": 0,
                "deal": 0,
                "endorse": 0,
                "hallTypeVOList": [],
                "sell": 1,
                "snack": 1,
                "vipTag": "折扣卡"
            },
            "promotion": {
                "cardPromotionTag": "开卡特惠，首单2张最高立减4元"
            },
            "showTimes": "10:10 | 11:30 | 12:30"
        },
        {
            "id": 5111,
            "mark": 0,
            "nm": "北京清河CGV影城",
            "sellPrice": "64",
            "addr": "海淀区清河中街68号华润五彩城购物中心东区7层",
            "distance": "11.9km",
            "tag": {
                "allowRefund": 0,
                "buyout": 0,
                "cityCardTag": 0,
                "deal": 0,
                "endorse": 0,
                "hallType": [
                    "60帧厅"
                ],
                "hallTypeVOList": [
                    {
                        "name": "60帧厅",
                        "url": ""
                    }
                ],
                "sell": 1,
                "snack": 1,
                "vipTag": "折扣卡"
            },
            "promotion": {
                "cardPromotionTag": "开卡特惠，9.9元起开卡"
            },
            "showTimes": "10:15 | 12:40 | 15:05"
        },
        {
            "id": 66,
            "mark": 0,
            "nm": "大地影院（昌平菓岭假日店）",
            "sellPrice": "45",
            "addr": "昌平区昌崔路203号果岭假日广场四楼",
            "distance": "12.2km",
            "tag": {
                "allowRefund": 0,
                "buyout": 0,
                "cityCardTag": 0,
                "deal": 0,
                "endorse": 1,
                "hallTypeVOList": [],
                "sell": 1,
                "snack": 1,
                "vipTag": "折扣卡"
            },
            "promotion": {
                "cardPromotionTag": "开卡特惠，首单1张最高立减10元"
            },
            "showTimes": "12:20 | 14:40 | 17:00"
        },
        {
            "id": 50,
            "mark": 0,
            "nm": "万达影城（昌平保利光魔店）",
            "sellPrice": "36",
            "addr": "昌平区鼓楼南大街6号佳莲时代广场4楼（近鼓楼西街）",
            "distance": "12.3km",
            "tag": {
                "allowRefund": 0,
                "buyout": 0,
                "cityCardTag": 0,
                "deal": 0,
                "endorse": 1,
                "hallTypeVOList": [],
                "sell": 1,
                "snack": 1,
                "vipTag": "折扣卡"
            },
            "promotion": {
                "cardPromotionTag": "开卡特惠，9.9元起开卡"
            },
            "showTimes": "10:15 | 11:25 | 12:35"
        },
        {
            "id": 27629,
            "mark": 0,
            "nm": "新影联米瑞酷影城（昌平西关店）",
            "sellPrice": "35",
            "addr": "昌平区西关路20号琥珀郡1号楼101室2层",
            "distance": "12.5km",
            "tag": {
                "allowRefund": 1,
                "buyout": 0,
                "cityCardTag": 0,
                "deal": 0,
                "endorse": 1,
                "hallTypeVOList": [],
                "sell": 1,
                "snack": 1,
                "vipTag": "折扣卡"
            },
            "promotion": {
                "cardPromotionTag": "开卡特惠，首单2张最高立减4元"
            },
            "showTimes": "09:05 | 10:00 | 10:40"
        },
        {
            "id": 5359,
            "mark": 0,
            "nm": "新华国际影城（宝盛店）",
            "sellPrice": "36.5",
            "addr": "海淀区宝盛北里西区28号兴美生活广场5层",
            "distance": "13.5km",
            "tag": {
                "allowRefund": 0,
                "buyout": 0,
                "cityCardTag": 0,
                "deal": 0,
                "endorse": 0,
                "hallTypeVOList": [],
                "sell": 1,
                "snack": 1,
                "vipTag": "折扣卡"
            },
            "promotion": {},
            "showTimes": "09:20 | 10:20 | 11:40"
        }
    ],
    "movieId": "1217125",
    "day": "2019-12-06",
    "random": 1575514073945,
    "paging": {
        "hasMore": true,
        "limit": 20,
        "offset": 0,
        "total": 222
    },
    "showDays": {
        "dates": [
            {
                "date": "2019-12-06",
                "isPredate": 0
            },
            {
                "date": "2019-12-07",
                "isPredate": 0
            },
            {
                "date": "2019-12-08",
                "isPredate": 0
            },
            {
                "date": "2019-12-09",
                "isPredate": 0
            },
            {
                "date": "2019-12-10",
                "isPredate": 0
            },
            {
                "date": "2019-12-12",
                "isPredate": 0
            },
            {
                "date": "2019-12-14",
                "isPredate": 0
            },
            {
                "date": "2019-12-15",
                "isPredate": 0
            }
        ]
    },
    "resId": "1575514073534"
}